{
  "name": "mtravis-apache",
  "version": "0.1.0",
  "author": "Mike Travis",
  "summary": "This module manages Apache.",
  "license": "Apache 2.0",
  "source": "git@gitlab.mpi.local:mtravis/mtravis-apache.git",
  "project_page": null,
  "issues_url": null,
  "dependencies": [{ "name": "puppetlabs/stdlib", "version_requirement": ">=4.0.0" }]
}